
{
    "title": "ProcessWire Demo Module",
    "version": "0.0.1",
    "summary": "",
    "author": "Kevin Vermeersch (hooox)",
    "href": "",
    "autoload": true,
    "singular": true,
    "installs": [],
    "requires": [
        "PHP>=7.0.0",
        "ProcessWire>=3.0.0"
    ]
}
